module sifiv-backend

require (
	github.com/DATA-DOG/go-sqlmock v1.3.3
	github.com/davecgh/go-spew v1.1.1
	github.com/dgrijalva/jwt-go v3.2.0+incompatible
	github.com/fsnotify/fsnotify v1.4.7
	github.com/go-sql-driver/mysql v1.4.1
	github.com/hashicorp/hcl v1.0.0
	github.com/jinzhu/gorm v1.9.10
	github.com/jinzhu/inflection v1.0.0
	github.com/labstack/echo v3.3.10+incompatible
	github.com/labstack/gommon v0.3.0
	github.com/magiconair/properties v1.8.1
	github.com/mattn/go-colorable v0.1.4
	github.com/mattn/go-isatty v0.0.10
	github.com/mitchellh/mapstructure v1.1.2
	github.com/pelletier/go-toml v1.4.0
	github.com/pmezard/go-difflib v1.0.0
	github.com/spf13/afero v1.2.2
	github.com/spf13/cast v1.3.0
	github.com/spf13/jwalterweatherman v1.1.0
	github.com/spf13/pflag v1.0.3
	github.com/spf13/viper v1.4.0
	github.com/stretchr/testify v1.4.0
	github.com/valyala/bytebufferpool v1.0.0
	github.com/valyala/fasttemplate v1.1.0
	golang.org/x/crypto v0.0.0-20191029031824-8986dd9e96cf
	golang.org/x/net v0.0.0-20191101175033-0deb6923b6d9
	golang.org/x/sys v0.0.0-20191008105621-543471e840be
	golang.org/x/text v0.3.2
	google.golang.org/appengine v1.6.1
	gopkg.in/yaml.v2 v2.2.2
)

go 1.13
